// Jest Snapshot v1, https://goo.gl/fbAQLP

exports[`PlayerDataComponent component should match snapshot 1`] = `
Object {
  "asFragment": [Function],
  "baseElement": <body>
    <div>
      <div
        class="sc-bwzfXH fGPbkT"
      >
        <p
          class="sc-bdVaJa kOOEfq"
        >
          Rang: 1
        </p>
        <p
          class="sc-bdVaJa kOOEfq"
        >
          Point: 1000
        </p>
        <p
          class="sc-bdVaJa kOOEfq"
        >
          Age: 22 ans
        </p>
        <p
          class="sc-bdVaJa kOOEfq"
        >
          Poids: 72 kg
        </p>
        <p
          class="sc-bdVaJa kOOEfq"
        >
          Taille: 185 cm
        </p>
      </div>
    </div>
  </body>,
  "container": <div>
    <div
      class="sc-bwzfXH fGPbkT"
    >
      <p
        class="sc-bdVaJa kOOEfq"
      >
        Rang: 1
      </p>
      <p
        class="sc-bdVaJa kOOEfq"
      >
        Point: 1000
      </p>
      <p
        class="sc-bdVaJa kOOEfq"
      >
        Age: 22 ans
      </p>
      <p
        class="sc-bdVaJa kOOEfq"
      >
        Poids: 72 kg
      </p>
      <p
        class="sc-bdVaJa kOOEfq"
      >
        Taille: 185 cm
      </p>
    </div>
  </div>,
  "debug": [Function],
  "findAllByAltText": [Function],
  "findAllByDisplayValue": [Function],
  "findAllByLabelText": [Function],
  "findAllByPlaceholderText": [Function],
  "findAllByRole": [Function],
  "findAllByTestId": [Function],
  "findAllByText": [Function],
  "findAllByTitle": [Function],
  "findByAltText": [Function],
  "findByDisplayValue": [Function],
  "findByLabelText": [Function],
  "findByPlaceholderText": [Function],
  "findByRole": [Function],
  "findByTestId": [Function],
  "findByText": [Function],
  "findByTitle": [Function],
  "getAllByAltText": [Function],
  "getAllByDisplayValue": [Function],
  "getAllByLabelText": [Function],
  "getAllByPlaceholderText": [Function],
  "getAllByRole": [Function],
  "getAllBySelectText": [Function],
  "getAllByTestId": [Function],
  "getAllByText": [Function],
  "getAllByTitle": [Function],
  "getAllByValue": [Function],
  "getByAltText": [Function],
  "getByDisplayValue": [Function],
  "getByLabelText": [Function],
  "getByPlaceholderText": [Function],
  "getByRole": [Function],
  "getBySelectText": [Function],
  "getByTestId": [Function],
  "getByText": [Function],
  "getByTitle": [Function],
  "getByValue": [Function],
  "queryAllByAltText": [Function],
  "queryAllByDisplayValue": [Function],
  "queryAllByLabelText": [Function],
  "queryAllByPlaceholderText": [Function],
  "queryAllByRole": [Function],
  "queryAllBySelectText": [Function],
  "queryAllByTestId": [Function],
  "queryAllByText": [Function],
  "queryAllByTitle": [Function],
  "queryAllByValue": [Function],
  "queryByAltText": [Function],
  "queryByDisplayValue": [Function],
  "queryByLabelText": [Function],
  "queryByPlaceholderText": [Function],
  "queryByRole": [Function],
  "queryBySelectText": [Function],
  "queryByTestId": [Function],
  "queryByText": [Function],
  "queryByTitle": [Function],
  "queryByValue": [Function],
  "rerender": [Function],
  "unmount": [Function],
}
`;
